<svg viewBox="0 0 100 100"><defs><symbol viewbox="0 0 10 7" id="svg-caret"><title>caret</title> <polygon fill="#333333" points="0,0 5,7 10,0 "> </polygon></symbol><symbol viewbox="0 0 100 100" id="svg-forum"><title>forum</title> <g> <path d="M98.5,24v51.3c0,1.5-1.2,2.6-2.6,2.6h-6.1l3.6,12.6l-11-12.6H39.7c-1.5,0-2.6-1.2-2.6-2.6v-5.7h36c1.7,0,3.1-1.4,3.1-3.1
		V21.3h19.7C97.3,21.3,98.5,22.5,98.5,24z"/> <path d="M70.4,9.6H4.6c-1.7,0-3.1,1.4-3.1,3.1v51c0,1.7,1.4,3.1,3.1,3.1h7.2L7.5,81.5l12.9-14.7h50c1.7,0,3.1-1.4,3.1-3.1v-51
		C73.5,10.9,72.1,9.6,70.4,9.6z"/> </g> </symbol><symbol viewbox="0 0 640 378.9" id="svg-logo"><title>logo</title> <g> <g> <path fill="#FFFFFF" d="M350.5,211.2c-4.8,0-7.8,2.2-8.5,5.3c-0.6,2.4,1.4,4.5,4.9,7.5c5.8-2,9.4-3.7,10.3-7.9
			C357.8,213.2,354.9,211.2,350.5,211.2z"/> <path fill="#FFFFFF" d="M320.5,252.7c-1.4,6.4,3.7,11.7,11.4,11.7c5.1,0,11.4-1.6,13.8-3.1L329,242.9
			C323.8,245.1,321.4,248,320.5,252.7z"/> <path fill="#FFFFFF" d="M633.1,184.2c7.9-54.4-32.8-84.2-147.2-84.2c-53.6,0-101.3,7.4-132.2,30.4c18.1-18.7,44.3-29.6,75.4-35.4
			l18.9-88.8H298.8l-77,155.9H221L210.1,6.2H60.9L3.8,274.4H100l40.6-191.6h0.7l15.8,191.6h80.4l96.9-191.6h0.7l-32.6,154
			c4.3-2.5,9.4-4.3,15.3-5.5c-5.1-4.6-6-9.3-5-14.1c2.3-10.9,13.6-20.7,39.5-20.7c17.4,0,32.7,5.4,29.7,19.8
			c-2,9.4-9.7,15.1-23.1,17.9l11.3,12.9c9.2-6.1,14.2-10.7,20.1-15.8l11.3,12.2c-8.2,8.1-13.1,11.5-19.8,15.9l9.8,10.9l2.2-10.3
			l92.3,14.2c13.3,2.2,16.2,9.7,14.8,17.3c-2.5,12.2-13,20.9-44.6,20.9c-15.8,0-26.6-1.8-33.5-5.4c-6.5-4-8.3-9.7-6.8-18.4H293.6
			c-15.9,75.6,67.3,86.4,145.4,86.4c114.1,0,171.4-29.5,184.7-92.1c9.4-43.6-17.3-67.3-67-74.9l-117.4-18
			c-9.7-1.4-11.9-6.1-10.4-13.3c2.2-10.8,14.4-18.3,44.6-18.3c11.2,0,22.3,1.4,30.2,5.4c8.6,3.6,13.7,10.1,11.2,20.5H633.1z"/> </g> <g> <path fill="#FFFFFF" d="M445.9,80.6h-4.4l0.6-3.1h13.6l-0.6,3.1h-4.4l-1.9,9.1H444L445.9,80.6z"/> <path fill="#FFFFFF" d="M456.9,77.6h6.7l0.5,7h0l3.5-7h6.7l-2.6,12.1h-4.3l1.8-8.6h0l-4.4,8.6h-3.6l-0.7-8.6h0l-1.8,8.6h-4.3
			L456.9,77.6z"/> </g> </g> </symbol><symbol viewbox="0 0 100 100" id="svg-motivation"><title>motivation</title> <path d="M8.3,91.4h91v6.8H1.8V94v-2.6V0.7h6.5L8.3,91.4L8.3,91.4z M17.1,84.7l-4.4-2.8L10.1,86l4.4,2.8L17.1,84.7z M26.5,69.8
	L22.1,67l-5.2,8.2l4.4,2.8L26.5,69.8z M35.9,54.9l-4.4-2.8l-5.2,8.2l4.4,2.8L35.9,54.9z M45.3,40l-4.4-2.8l-5.2,8.2l4.4,2.8L45.3,40
	z M50.6,31.6l1.6,1.2l3.1-4.6L49,24.3l-3.9,6.2l4.4,2.8L50.6,31.6z M66,35.5l-5.9-3.9l-2.9,4.4l5.9,3.9L66,35.5z M77.8,41.4
	l-4.4-2.8l-1.1,1.7l-1.6-1.2l-2.9,4.4l6.1,4.1L77.8,41.4z M85.5,29.5l-4.4-2.8l-4.2,6.7l4.4,2.8L85.5,29.5z M93.1,17.4l-4.4-2.8
	l-4.2,6.7l4.4,2.8L93.1,17.4z M98.7,8.4l-4.4-2.8l-2.6,4.1l4.4,2.8L98.7,8.4z"/> </symbol><symbol viewbox="0 0 100 100" id="svg-nutrition"><title>nutrition</title> <path d="M50,93L8.3,51.3c-10.1-10.1-10.1-26.5,0-36.7s26.5-10.1,36.7,0l5,5l5-5c10.1-10.1,26.5-10.1,36.7,0s10.1,26.5,0,36.7L50,93z
	 M84.7,29.1H72.9V17.3h-9.8v11.8H51.4v9.8h11.8v11.8h9.8V38.8h11.8V29.1z"/> </symbol><symbol viewbox="0 0 100 100" id="svg-store"><title>store</title> <g> <path d="M80.8,77.6c0.6,0.7,1,1.6,1,2.6c0,2-1.6,3.7-3.7,3.7c-2,0-3.7-1.6-3.7-3.7c0-1,0.4-1.9,1-2.5l-39.8,0.2l-0.1,0
		c0.6,0.7,1,1.6,1,2.6c0,2-1.6,3.7-3.7,3.7s-3.7-1.6-3.7-3.7c0-1,0.4-1.9,1-2.5l-0.1,0l-2.1,0c0,0,0,0,0,0c-0.7,0-1.4-0.3-1.8-0.9
		c-0.4-0.6-0.5-1.3-0.3-2l4.4-13.6L15,23L2.9,20.3C1.8,20,1,18.9,1.3,17.7c0.3-1.2,1.4-1.9,2.6-1.7l13.2,2.9
		c0.7,0.2,1.3,0.7,1.6,1.3l2.4,5.1l76.3,0.1c0.5,0,0.9,0.2,1.2,0.6c0.3,0.4,0.4,0.8,0.2,1.3l-10,34.3c-0.2,0.6-0.8,1.1-1.4,1.1H34.7
		l-3.4,10.7l51.3-0.3c0,0,0,0,0,0c1.2,0,2.2,1,2.2,2.2c0,1.2-1,2.2-2.2,2.2L80.8,77.6z"/> </g> </symbol><symbol viewbox="0 0 100 100" id="svg-supplements"><title>supplements</title> <g> <path d="M51.1,0.8C38,0.8,29.9,3.4,29.9,3.4v0.7v10.8v0.7c0,0,7.1,2.6,20.2,2.6s21.1-2.6,21.1-2.6v-0.7V4.1V3.4
		C71.2,3.4,64.1,0.8,51.1,0.8z"/> <path d="M52.7,99.2L52.7,99.2c-2,0-3.3-0.1-3.6-0.1c-11.2,0-19.1-2.3-23.5-6.9c-3.5-3.6-3.4-7.3-3.3-7.5l0-52.5
		c0-11.4,6.8-14.1,7.1-14.3l0.6-0.2l0.6,0.2c0.1,0,7.1,2.5,19.6,2.5c12.6,0,20.6-2.5,20.6-2.5l0.8-0.2l0.7,0.4
		c6.2,4.2,5.8,13.8,5.8,14.2l0,52.5c0,4-1.8,9.3-10.1,12.3C62.7,98.8,56.7,99.2,52.7,99.2z M71.3,38.4c0,0-8.1,2.6-21.1,2.6
		S30,38.4,30,38.4v38.1c0,0,7.1,2.6,20.2,2.6s21.1-2.6,21.1-2.6V38.4z"/> </g> </symbol><symbol viewbox="0 0 100 100" id="svg-tools"><title>tools</title> <path d="M98.3,18.9c0,7-0.2,53.7-5.9,65.4c0,0-0.9,10.8-42.4,10.8S7.6,84.3,7.6,84.3C2,72.6,1.7,25.9,1.7,18.9s5.3-8.8,6-9.3
	C13.2,5.9,49.2,4.9,50,4.9s36.8,1,42.3,4.7C93,10.1,98.3,11.9,98.3,18.9z M33.4,41.1h33.4l13.7-17c0,0-9.4-13.4-30.5-13.4
	S19.5,24,19.5,24L33.4,41.1z M52,38.5l3.9-24.2L44.1,38.5H52z"/> </symbol><symbol viewbox="0 0 36.4 27.2" id="svg-up"><title>up</title> <g> <path fill="#FFFFFF" d="M33.6,4.2H2.8C2.5,4.2,2.2,3.7,2.2,3s0.2-1.1,0.5-1.1h30.9c0.3,0,0.5,0.5,0.5,1.1S33.9,4.2,33.6,4.2z"/> <polygon fill="#FFFFFF" points="7.7,25.3 28.6,25.3 28.6,21 32.6,21 18.2,10.6 3.7,21 7.7,21 	"> </polygon></g> </symbol><symbol viewbox="0 0 100 100" id="svg-videos"><title>videos</title> <g> <polygon points="2.9,99 97.1,50.2 2.9,1 	"> </polygon></g> </symbol><symbol viewbox="0 0 100 100" id="svg-workouts"><title>workouts</title> <g> <path d="M12.3,74.8c0,2.2-2.6,3.9-5.8,3.9l0,0c-3.2,0-5.8-1.8-5.8-3.9V25.2c0-2.2,2.6-3.9,5.8-3.9l0,0c3.2,0,5.8,1.8,5.8,3.9V74.8z
		"/> <path d="M99.3,25.2c0-2.2-2.6-3.9-5.8-3.9l0,0c-3.2,0-5.8,1.8-5.8,3.9v49.6c0,2.2,2.6,3.9,5.8,3.9l0,0c3.2,0,5.8-1.8,5.8-3.9V25.2z
		"/> <path d="M26.1,42.7l0.1-17.5c0-2.2-2.6-3.9-5.8-3.9l0,0c-3.2,0-5.8,1.8-5.8,3.9v49.6c0,2.2,2.6,3.9,5.8,3.9l0,0
		c3.2,0,5.8-1.8,5.8-3.9l-0.1-17.5h47.8l0,17.5c0,2.2,2.6,3.9,5.8,3.9l0,0c3.2,0,5.8-1.8,5.8-3.9V25.2c0-2.2-2.6-3.9-5.8-3.9l0,0
		c-3.2,0-5.8,1.8-5.8,3.9l0,17.5H26.1z"/> </g> </symbol></defs></svg>